[패키지 소개] 암호화폐 시세와 인덱스를 제공하는 ubci 패키지를 소개합니다 · Mrchypark
…
## [1] "LC_COLLATE=Korean_Korea.949;LC_CTYPE=Korean_Korea.949;LC_MONETARY=Korean_Korea.949;LC_NUMERIC=C;LC_TIME=Korean_Korea.949"

함수 예

패키지가 리드미와 설명서를 제공하고 있지만 저도 다시 사용해 보겠습니다.

인덱스 코드 가져오기

ubci_index_options() 함수는 인덱스를 가져오기에 앞서 인덱스의 이름과 설명을 알려줍니다.

library(ubci)
ubci_index_options()

## # A tibble: 21 x 4
##    index   name                cate      smry                                   
##    <chr>   <chr>               <chr>     <chr>                                  
##  1 UBMI    UBMI(Upbit Market ~ Market I~ It is calculated for all cryptocurrenc~
##  2 UBMI_ST UBMI BTC quote(Upb~ Market I~ It is the index that is converted on a~
##  3 UBAI    UBAI(Upbit Altcoin~ Market I~ It is calculated for all cryptocurrenc~
##  4 UBAI_ST UBAI BTC quote(Upb~ Market I~ It is the index that is converted on a~
##  5 UTTI    UBMI 10(Upbit Top ~ Market I~ It is an index that comprises the top ~
##  6 UTHI    UBMI 30(Upbit Top ~ Market I~ It is an index that comprises the top ~
##  7 THMIDX~ Simple Settlement ~ Theme In~ ""                                     
##  8 THMIDX~ Game                Theme In~ ""                                     
##  9 THMIDX~ Advertisement Indu~ Theme In~ ""                                     
## 10 THMIDX~ Data Storage Servi~ Theme In~ ""                                     
## # ... with 11 more rows

자료형은 tbl로 되어 있네요.
주식 분석 패키지의 최강자인 tidyquant와 상성을 고려한 선택이었습니다.
ubci_index_options() 함수는 lang 인자로 언어를 변경할 수 있습니다.

ubci_index_options(lang="ko")

## # A tibble: 21 x 4
##    index   name                 cate    smry                                    
##    <chr>   <chr>                <chr>   <chr>                                   
##  1 UBMI    UBMI(Upbit Market I~ 시장 인덱스~ 업비트 거래소에 상장된 모든 암호화폐를 대상으로 산출한 인덱스~
##  2 UBMI_ST UBMI BTC quote(Upbi~ 시장 인덱스~ UBMI 인덱스를 비트코인 기준으로 환산한 인덱스~
##  3 UBAI    UBAI(Upbit Altcoin ~ 시장 인덱스~ 업비트 거래소에 상장된 모든 암호화폐에서 비트코인을 제외한 인덱스~
##  4 UBAI_ST UBAI BTC quote(Upbi~ 시장 인덱스~ UBAI 인덱스를 비트코인 기준으로 환산한 인덱스~
##  5 UTTI    UBMI 10(Upbit Top 1~ 시장 인덱스~ 업비트에 상장된 암호화폐 중, 시가총액 상위 10개 종목으로 구성한 인~
##  6 UTHI    UBMI 30(Upbit Top 3~ 시장 인덱스~ 업비트에 상장된 암호화폐 중, 시가총액 상위 30개 종목으로 구성한 인~
##  7 THMIDX~ 간편결제 플랫폼      테마 인덱스~ 온라인 자산과 암호화폐를 기반으로 한 결제 솔루션을 제공하는 암호화폐로~
##  8 THMIDX~ 게임시장             테마 인덱스~ 게임 산업과 연관되거나, 게임 내/게임 간의 가치 교환에 사용되는 암호~
##  9 THMIDX~ 광고산업             테마 인덱스~ 다양한 형태의 광고와 관련된 서비스를 제공하는 암호화폐로 구성된 테마인~
## 10 THMIDX~ 데이터저장 서비스    테마 인덱스~ 유휴 저장공간을 블록체인 기술을 통해 엮음으로써, 클라우드 스토리지 서~
## # ... with 11 more rows

인덱스 데이터

ubci_index() 함수는 인덱스의 일별 시가, 고가, 저가, 종가, 거래량을 제공합니다.
from,to 인자로 기간을 조절할 수 있습니다.

loi<-ubci_index_options()
loi$index[1]

## [1] "UBMI"

ubci_index(loi$index[1])

## # A tibble: 796 x 6
##    index date        open  high   low close
##    <chr> <date>     <dbl> <dbl> <dbl> <dbl>
##  1 UBMI  2019-12-05 1224. 1259. 1217. 1232.
##  2 UBMI  2019-12-04 1241. 1282. 1212. 1224.
##  3 UBMI  2019-12-03 1239. 1252. 1230. 1240.
##  4 UBMI  2019-12-02 1249. 1257. 1217. 1238.
##  5 UBMI  2019-12-01 1273. 1273. 1224. 1249.
##  6 UBMI  2019-11-30 1303. 1308. 1259. 1273.
##  7 UBMI  2019-11-29 1256. 1324. 1255. 1302.
##  8 UBMI  2019-11-28 1255. 1288. 1244. 1256.
##  9 UBMI  2019-11-27 1214. 1283. 1161. 1255.
## 10 UBMI  2019-11-26 1201. 1239. 1188. 1214.
## # ... with 786 more rows
tail(ubci_index(loi$index[1], from="2018-05-15"))

## # A tibble: 6 x 6
##   index date        open  high   low close
##   <chr> <date>     <dbl> <dbl> <dbl> <dbl>
## 1 UBMI  2018-05-20 2216. 2300. 2198. 2290.
## 2 UBMI  2018-05-19 2231. 2255. 2197. 2215.
## 3 UBMI  2018-05-18 2199. 2232. 2140. 2229.
## 4 UBMI  2018-05-17 2281. 2317. 2177. 2200.
## 5 UBMI  2018-05-16 2319. 2330. 2183. 2281.
## 6 UBMI  2018-05-15 2419. 2439. 2301. 2317.

ubci_index(loi$index[1], to="2018-05-15")

## # A tibble: 227 x 6
##    index date        open  high   low close
##    <chr> <date>     <dbl> <dbl> <dbl> <dbl>
##  1 UBMI  2018-05-15 2419. 2439. 2301. 2317.
##  2 UBMI  2018-05-14 2431. 2456. 2305. 2417.
##  3 UBMI  2018-05-13 2313. 2445. 2274. 2430.
##  4 UBMI  2018-05-12 2206. 2356. 2138. 2313.
##  5 UBMI  2018-05-11 2446. 2465. 2088. 2239.
##  6 UBMI  2018-05-10 2598. 2608. 2431. 2446.
##  7 UBMI  2018-05-09 2549. 2594. 2441. 2583.
##  8 UBMI  2018-05-08 2618. 2644. 2521. 2567.
##  9 UBMI  2018-05-07 2700. 2700. 2538. 2612.
## 10 UBMI  2018-05-06 2699. 2699. 2699. 2699.
## # ... with 217 more rows
…
암호화폐 코드

ubci_get_options() 함수는 취급하는 암호화폐의 종류를 이름과 코드로 제공합니다.

ubci_get_options()

## # A tibble: 440 x 5
##    code            name             exchange tradeStatus marketState
##    <chr>           <chr>            <chr>    <chr>       <chr>      
##  1 UPBIT.KRW-BTC   Bitcoin          UPBIT    ACTIVE      ACTIVE     
##  2 UPBIT.KRW-DASH  Dash             UPBIT    DELISTED    DELISTED   
##  3 UPBIT.KRW-ETH   Ethereum         UPBIT    PREVIEW     ACTIVE     
##  4 UPBIT.BTC-NEO   NEO              UPBIT    DELISTED    DELISTED   
##  5 UPBIT.BTC-ETH   Ethereum         UPBIT    PREVIEW     ACTIVE     
##  6 UPBIT.BTC-LTC   Litecoin         UPBIT    PREVIEW     ACTIVE     
##  7 UPBIT.BTC-STRAT Stratis          UPBIT    PREVIEW     ACTIVE     
##  8 UPBIT.BTC-XRP   Ripple           UPBIT    PREVIEW     ACTIVE     
##  9 UPBIT.BTC-ETC   Ethereum Classic UPBIT    PREVIEW     ACTIVE     
## 10 UPBIT.BTC-OMG   OmiseGo          UPBIT    PREVIEW     ACTIVE     
## # ... with 430 more rows

ubci_get_options() 함수 역시 한글 옵션을 제공합니다.

ubci_get_options(lang="ko")

## # A tibble: 440 x 5
##    code            name           exchange tradeStatus marketState
##    <chr>           <chr>          <chr>    <chr>       <chr>      
##  1 UPBIT.KRW-BTC   비트코인       UPBIT    ACTIVE      ACTIVE     
##  2 UPBIT.KRW-DASH  대시           UPBIT    DELISTED    DELISTED   
##  3 UPBIT.KRW-ETH   이더리움       UPBIT    PREVIEW     ACTIVE     
##  4 UPBIT.BTC-NEO   네오           UPBIT    DELISTED    DELISTED   
##  5 UPBIT.BTC-ETH   이더리움       UPBIT    PREVIEW     ACTIVE     
##  6 UPBIT.BTC-LTC   라이트코인     UPBIT    PREVIEW     ACTIVE     
##  7 UPBIT.BTC-STRAT 스트라티스     UPBIT    PREVIEW     ACTIVE     
##  8 UPBIT.BTC-XRP   리플           UPBIT    PREVIEW     ACTIVE     
##  9 UPBIT.BTC-ETC   이더리움클래식 UPBIT    PREVIEW     ACTIVE     
## 10 UPBIT.BTC-OMG   오미세고       UPBIT    PREVIEW     ACTIVE     
## # ... with 430 more rows
…
ubci_get() 함수 또한 암호화폐의 일별 시가, 고가, 저가, 종가, 거래량을 제공합니다.

loc<-ubci_get_options()
loc$code[1]

## [1] "UPBIT.KRW-BTC"

ubci_get(loc$code[1])

## Warning: `cols` is now required.
## Please use `cols = c(code, candleDateTime, candleDateTimeKst, openingPrice, highPrice, 
##     lowPrice, tradePrice, candleAccTradeVolume)`

## # A tibble: 400 x 7
##    code          date          open    high     low   close volume
##    <chr>         <date>       <dbl>   <dbl>   <dbl>   <dbl>  <dbl>
##  1 UPBIT.KRW-BTC 2019-12-05 8515000 8810000 8480000 8598000  3591.
##  2 UPBIT.KRW-BTC 2019-12-04 8607000 8996000 8432000 8515000  5171.
##  3 UPBIT.KRW-BTC 2019-12-03 8590000 8700000 8520000 8607000  1642.
##  4 UPBIT.KRW-BTC 2019-12-02 8630000 8705000 8415000 8585000  1837.
##  5 UPBIT.KRW-BTC 2019-12-01 8838000 8840000 8480000 8630000  3024.
##  6 UPBIT.KRW-BTC 2019-11-30 9035000 9106000 8726000 8838000  2496.
##  7 UPBIT.KRW-BTC 2019-11-29 8672000 9200000 8658000 9037000  4211.
##  8 UPBIT.KRW-BTC 2019-11-28 8700000 8903000 8615000 8674000  4046.
##  9 UPBIT.KRW-BTC 2019-11-27 8413000 8900000 8041000 8702000  9266.
## 10 UPBIT.KRW-BTC 2019-11-26 8338000 8627000 8240000 8410000  5868.
## # ... with 390 more rows
…
