…
롱폼long form이란 데이터가 길게 아래로 늘어져 있는 형태를 뜻합니다.
데이터를 보면서 알아볼까요?

# remotes::install_github("mrchypark/krlift")
library(krlift)

krlift는 한국의 승강기 등록 기록을 데이터 패키지화한 것입니다.
star는 패키지 제작자를 춤추게 합니다. 덩실~
lift 라는 데이터가 내장되어 있네요.
한번 확인해 볼까요.

lift

## # A tibble: 352,590 x 8
##    지역  건물명 건물층수 운행층수 승강기종류 `건물용도(대)` `정격속도(m/s)`
##    <chr> <chr>     <int>    <dbl> <chr>      <chr>                    <dbl>
##  1 강원 강~ (주)강남~        7        2 덤웨이터   숙박시설                  0.4 
##  2 강원 강~ (주)강남~        7        3 덤웨이터   숙박시설                  0.33
##  3 강원 강~ (주)강남~        7        8 승객용     숙박시설                  1   
##  4 강원 강~ (주)강릉~        3        3 화물용     판매시설                  0.75
##  5 강원 강~ (주)경포~        4        5 승객용     제1종근린생활시설~            1   
##  6 강원 강~ (주)뉴광~        6        7 승객용     제2종근린생활시설~            1   
##  7 강원 강~ (주)대성~        3        3 화물용(DW) 공장                      0.5 
##  8 강원 강~ (주)동부~        3        3 장애인용   공장                      1   
##  9 강원 강~ (주)동아~        2        2 화물용(DW) 제2종근린생활시설~            0.5 
## 10 강원 강~ (주)롯데~       10        2 화물용     공장                      0.33
## # ... with 352,580 more rows, and 1 more variable: 대수 <int>
…
library(tidyr)

tidyr은 롱폼 to 와이드폼을 위한 spread()함수와 와이드폼 to 롱폼을 위한 gather()함수가 있습니다.
제가 위해서 lift 데이터는 승강기 관점의 데이터라고 설명을 드렸습니다.
그럼 우선 건물명 관점의 데이터로 바꿔볼까요?

lift_sm <- 
    lift %>% 
    group_by(`건물명`, `승강기종류`) %>% 
    summarise(`총대수` = sum(`대수`))
lift_sm

## # A tibble: 231,928 x 3
## # Groups:   건물명 [175,090]
##    건물명                  승강기종류      총대수
##    <chr>                   <chr>            <int>
##  1 #11                     승객용               1
##  2 #12                     승객용               1
##  3 #13 원룸                승객용               1
##  4 #14                     승객용               1
##  5 #N 모텔                 승객용               1
##  6 #모텔                   승객용               1
##  7 #숲                     승객용               1
##  8 ( 재)광주과학기술진흥원 덤웨이터             1
##  9 ( 재)광주과학기술진흥원 승객용               2
## 10 ( 재)광주과학기술진흥원 장애/승객화물용      2
## # ... with 231,918 more rows

group_by()함수와 summarise()함수를 이용해서 각 건물별로 한개의 관측치(행)만 가지는 lift_sm 데이터를 만들었습니다.
lift_sm 데이터는 각 건물이 승강기를 종류별로 총 몇대씩 가지고 있는지를 정리한 데이터입니다.
그럼 이 데이터를 와이드폼으로 바꿔보겠습니다.

lift_sm %>% 
    spread(`승강기종류`, `총대수`)

## # A tibble: 175,090 x 30
## # Groups:   건물명 [175,090]
##    건물명 경사형휠체어리프트~ 덤웨이터 `비상/승객화물용`~ `비상/장애/승객화물`~
##    <chr>             <int>    <int>            <int>            <int>
##  1 #11                  NA       NA               NA               NA
##  2 #12                  NA       NA               NA               NA
##  3 #13 원~               NA       NA               NA               NA
##  4 #14                  NA       NA               NA               NA
##  5 #N 모텔~               NA       NA               NA               NA
##  6 #모텔                NA       NA               NA               NA
##  7 #숲                  NA       NA               NA               NA
##  8 ( 재)광~               NA        1               NA               NA
##  9 ( 주)선~               NA       NA               NA               NA
## 10 ( 주)유~               NA       NA               NA               NA
## # ... with 175,080 more rows, and 25 more variables:
## #   `비상/장애/전망용` <int>, `비상/장애/침대용` <int>,
## #   `비상/장애인용` <int>, `비상/침대용` <int>, 비상용 <int>,
## #   소형엘리베이터 <int>, 수직형휠체어리프트 <int>, 수평보행기 <int>,
## #   승객용 <int>, 승객화물용 <int>, 에스컬레이터 <int>, 자동차용 <int>,
## #   `장애/승객화물용` <int>, `장애/전망/침대용` <int>,
## #   `장애/전망용` <int>, `장애/침대용` <int>, 장애인용 <int>,
## #   `전망/침대용` <int>, 전망용 <int>, 침대용 <int>,
## #   `피난/장애인용` <int>, 피난용 <int>, `화물/자동차용` <int>,
…
