…
각 csv 파일들을 readr::read_csv() 함수를 이용해서 각각 불러올 수 있습니다. 한 파일만 먼저 예시로 불러와 보겠습니다.

readr::read_csv(csv_files[1])

## Parsed with column specification:
## cols(
##   Month_Year = col_character(),
##   Hospital_Name = col_character(),
##   Hospital_ID = col_double(),
##   Hospital_Department = col_character(),
##   ReferralType = col_character(),
##   TotalReferrals = col_double()
## )

## # A tibble: 837 x 6
##    Month_Year Hospital_Name Hospital_ID Hospital_Depart… ReferralType
##    <chr>      <chr>               <dbl> <chr>            <chr>       
##  1 Aug-15     AMNCH                1049 Paediatric ENT   General Ref…
##  2 Aug-15     AMNCH                1049 Paediatric Gast… General Ref…
##  3 Aug-15     AMNCH                1049 Paediatric Gene… General Ref…
##  4 Aug-15     Bantry Gener…         704 Gastroenterology General Ref…
##  5 Aug-15     Bantry Gener…         704 General Medicine General Ref…
##  6 Aug-15     Bantry Gener…         704 General Surgery  General Ref…
##  7 Aug-15     Bantry Gener…         704 Medicine for th… General Ref…
##  8 Aug-15     Bantry Gener…         704 Outreach Dermat… General Ref…
##  9 Aug-15     Bantry Gener…         704 Outreach Orthop… General Ref…
## 10 Aug-15     Bantry Gener…         704 Outreach Surgic… General Ref…
## # … with 827 more rows, and 1 more variable: TotalReferrals <dbl>
…
##   Hospital_Department = col_character(),
##   ReferralType = col_character(),
##   TotalReferrals = col_double()
## )
## Parsed with column specification:
## cols(
##   Month_Year = col_character(),
##   Hospital_Name = col_character(),
##   Hospital_ID = col_double(),
##   Hospital_Department = col_character(),
##   ReferralType = col_character(),
##   TotalReferrals = col_double()
## )

## # A tibble: 12,278 x 6
##    Month_Year Hospital_Name Hospital_ID Hospital_Depart… ReferralType
##    <chr>      <chr>               <dbl> <chr>            <chr>       
##  1 Aug-15     AMNCH                1049 Paediatric ENT   General Ref…
##  2 Aug-15     AMNCH                1049 Paediatric Gast… General Ref…
##  3 Aug-15     AMNCH                1049 Paediatric Gene… General Ref…
##  4 Aug-15     Bantry Gener…         704 Gastroenterology General Ref…
##  5 Aug-15     Bantry Gener…         704 General Medicine General Ref…
##  6 Aug-15     Bantry Gener…         704 General Surgery  General Ref…
##  7 Aug-15     Bantry Gener…         704 Medicine for th… General Ref…
##  8 Aug-15     Bantry Gener…         704 Outreach Dermat… General Ref…
##  9 Aug-15     Bantry Gener…         704 Outreach Orthop… General Ref…
## 10 Aug-15     Bantry Gener…         704 Outreach Surgic… General Ref…
## # … with 12,268 more rows, and 1 more variable: TotalReferrals <dbl>
…
## Warning: 3492 parsing failures.
## row        col        expected   actual                                                                                 file
##   1 Month_Year date like %b-%y Jan-2018 'ie-general-referrals-by-hospital/general-referrals-by-hospital-department-2018.csv'
##   2 Month_Year date like %b-%y Jan-2018 'ie-general-referrals-by-hospital/general-referrals-by-hospital-department-2018.csv'
##   3 Month_Year date like %b-%y Jan-2018 'ie-general-referrals-by-hospital/general-referrals-by-hospital-department-2018.csv'
##   4 Month_Year date like %b-%y Jan-2018 'ie-general-referrals-by-hospital/general-referrals-by-hospital-department-2018.csv'
##   5 Month_Year date like %b-%y Jan-2018 'ie-general-referrals-by-hospital/general-referrals-by-hospital-department-2018.csv'
## ... .......... ............... ........ ....................................................................................
## See problems(...) for more details.

## # A tibble: 12,278 x 6
##    Month_Year Hospital_Name Hospital_ID Hospital_Depart… ReferralType
##    <date>     <chr>               <dbl> <chr>            <chr>       
##  1 2015-08-01 AMNCH                1049 Paediatric ENT   General Ref…
##  2 2015-08-01 AMNCH                1049 Paediatric Gast… General Ref…
##  3 2015-08-01 AMNCH                1049 Paediatric Gene… General Ref…
##  4 2015-08-01 Bantry Gener…         704 Gastroenterology General Ref…
##  5 2015-08-01 Bantry Gener…         704 General Medicine General Ref…
##  6 2015-08-01 Bantry Gener…         704 General Surgery  General Ref…
##  7 2015-08-01 Bantry Gener…         704 Medicine for th… General Ref…
##  8 2015-08-01 Bantry Gener…         704 Outreach Dermat… General Ref…
##  9 2015-08-01 Bantry Gener…         704 Outreach Orthop… General Ref…
## 10 2015-08-01 Bantry Gener…         704 Outreach Surgic… General Ref…
## # … with 12,268 more rows, and 1 more variable: TotalReferrals <dbl>
…
##   Hospital_Department = col_character(),
##   ReferralType = col_character(),
##   TotalReferrals = col_double()
## )
## Parsed with column specification:
## cols(
##   Month_Year = col_character(),
##   Hospital_Name = col_character(),
##   Hospital_ID = col_double(),
##   Hospital_Department = col_character(),
##   ReferralType = col_character(),
##   TotalReferrals = col_double()
## )

## # A tibble: 12,278 x 6
##    Month_Year Hospital_Name Hospital_ID Hospital_Depart… ReferralType
##    <date>     <chr>               <dbl> <chr>            <chr>       
##  1 2015-08-01 AMNCH                1049 Paediatric ENT   General Ref…
##  2 2015-08-01 AMNCH                1049 Paediatric Gast… General Ref…
##  3 2015-08-01 AMNCH                1049 Paediatric Gene… General Ref…
##  4 2015-08-01 Bantry Gener…         704 Gastroenterology General Ref…
##  5 2015-08-01 Bantry Gener…         704 General Medicine General Ref…
##  6 2015-08-01 Bantry Gener…         704 General Surgery  General Ref…
##  7 2015-08-01 Bantry Gener…         704 Medicine for th… General Ref…
##  8 2015-08-01 Bantry Gener…         704 Outreach Dermat… General Ref…
##  9 2015-08-01 Bantry Gener…         704 Outreach Orthop… General Ref…
## 10 2015-08-01 Bantry Gener…         704 Outreach Surgic… General Ref…
## # … with 12,268 more rows, and 1 more variable: TotalReferrals <dbl>
…
##   Hospital_Department = col_character(),
##   ReferralType = col_character(),
##   TotalReferrals = col_double()
## )
## Parsed with column specification:
## cols(
##   Month_Year = col_character(),
##   Hospital_Name = col_character(),
##   Hospital_ID = col_double(),
##   Hospital_Department = col_character(),
##   ReferralType = col_character(),
##   TotalReferrals = col_double()
## )

## # A tibble: 12,278 x 7
##    source Month_Year Hospital_Name Hospital_ID Hospital_Depart… ReferralType
##    <chr>  <date>     <chr>               <dbl> <chr>            <chr>       
##  1 ie-ge… 2015-08-01 AMNCH                1049 Paediatric ENT   General Ref…
##  2 ie-ge… 2015-08-01 AMNCH                1049 Paediatric Gast… General Ref…
##  3 ie-ge… 2015-08-01 AMNCH                1049 Paediatric Gene… General Ref…
##  4 ie-ge… 2015-08-01 Bantry Gener…         704 Gastroenterology General Ref…
##  5 ie-ge… 2015-08-01 Bantry Gener…         704 General Medicine General Ref…
##  6 ie-ge… 2015-08-01 Bantry Gener…         704 General Surgery  General Ref…
##  7 ie-ge… 2015-08-01 Bantry Gener…         704 Medicine for th… General Ref…
##  8 ie-ge… 2015-08-01 Bantry Gener…         704 Outreach Dermat… General Ref…
##  9 ie-ge… 2015-08-01 Bantry Gener…         704 Outreach Orthop… General Ref…
## 10 ie-ge… 2015-08-01 Bantry Gener…         704 Outreach Surgic… General Ref…
## # … with 12,268 more rows, and 1 more variable: TotalReferrals <dbl>
…
