…
## [1] "LC_COLLATE=Korean_Korea.949;LC_CTYPE=Korean_Korea.949;LC_MONETARY=Korean_Korea.949;LC_NUMERIC=C;LC_TIME=Korean_Korea.949"

함수 예

패키지가 리드미와 설명서를 제공하고 있지만 저도 다시 사용해 보겠습니다.

인덱스 코드 가져오기

ubci_index_options() 함수는 인덱스를 가져오기에 앞서 인덱스의 이름과 설명을 알려줍니다.

library(ubci)
ubci_index_options()

## # A tibble: 26 x 4
##    index   name               cate      smry                               
##    <chr>   <chr>              <chr>     <chr>                              
##  1 UBMI    UBMI(Upbit Market~ Market I~ It is calculated for all cryptocur~
##  2 UBMI_ST UBMI BTC quote(Up~ Market I~ It is the index that is converted ~
##  3 UBAI    UBAI(Upbit Altcoi~ Market I~ It is calculated for all cryptocur~
##  4 UBAI_ST UBAI BTC quote(Up~ Market I~ It is the index that is converted ~
##  5 UTTI    UBMI 10(Upbit Top~ Market I~ It is an index that comprises the ~
##  6 UTHI    UBMI 30(Upbit Top~ Market I~ It is an index that comprises the ~
##  7 THMIDX~ Value Preservatio~ Theme In~ ""                                 
##  8 THMIDX~ Simple Settlement~ Theme In~ ""                                 
##  9 THMIDX~ Game               Theme In~ ""                                 
## 10 THMIDX~ Advertisement Ind~ Theme In~ ""                                 
## # ... with 16 more rows

자료형은 tbl로 되어 있네요.
주식 분석 패키지의 최강자인 tidyquant와 상성을 고려한 선택이었습니다.
ubci_index_options() 함수는 lang 인자로 언어를 변경할 수 있습니다.

ubci_index_options(lang="ko")

## # A tibble: 26 x 4
##    index   name                cate     smry                               
##    <chr>   <chr>               <chr>    <chr>                              
##  1 UBMI    UBMI(Upbit Market ~ 시장 인덱스~ 업비트 거래소에 상장된 모든 암호화폐를 대상으로 산출한 인덱스~
##  2 UBMI_ST UBMI BTC quote(Upb~ 시장 인덱스~ UBMI 인덱스를 비트코인 기준으로 환산한 인덱스~
##  3 UBAI    UBAI(Upbit Altcoin~ 시장 인덱스~ 업비트 거래소에 상장된 모든 암호화폐에서 비트코인을 제외한 인~
##  4 UBAI_ST UBAI BTC quote(Upb~ 시장 인덱스~ UBAI 인덱스를 비트코인 기준으로 환산한 인덱스~
##  5 UTTI    UBMI 10(Upbit Top ~ 시장 인덱스~ 업비트에 상장된 암호화폐 중, 시가총액 상위 10개 종목으로 ~
##  6 UTHI    UBMI 30(Upbit Top ~ 시장 인덱스~ 업비트에 상장된 암호화폐 중, 시가총액 상위 30개 종목으로 ~
##  7 THMIDX~ 가치보존 및 바스켓  테마 인덱스~ 다른 자산으로 구성된 바스켓을 보유하고 있거나, 연동을 통해 ~
##  8 THMIDX~ 간편결제 플랫폼     테마 인덱스~ 온라인 자산과 암호화폐를 기반으로 한 결제 솔루션을 제공하는 ~
##  9 THMIDX~ 게임시장            테마 인덱스~ 게임 산업과 연관되거나, 게임 내/게임 간의 가치 교환에 사용~
## 10 THMIDX~ 광고산업            테마 인덱스~ 다양한 형태의 광고와 관련된 서비스를 제공하는 암호화폐로 구성~
## # ... with 16 more rows

인덱스 데이터

ubci_index() 함수는 인덱스의 일별 시가, 고가, 저가, 종가, 거래량을 제공합니다.
from,to 인자로 기간을 조절할 수 있습니다.

loi<-ubci_index_options()
loi$index[1]

## [1] "UBMI"

ubci_index(loi$index[1])

## # A tibble: 678 x 6
##    index date        open  high   low close
##    <chr> <date>     <dbl> <dbl> <dbl> <dbl>
##  1 UBMI  2019-08-09 1978. 1985. 1926. 1961.
##  2 UBMI  2019-08-08 1979. 1990. 1931. 1977.
##  3 UBMI  2019-08-07 1944. 2010. 1914. 1980.
##  4 UBMI  2019-08-06 2002. 2041. 1901. 1942.
##  5 UBMI  2019-08-05 1851. 2005. 1851. 2001.
##  6 UBMI  2019-08-04 1832. 1860. 1791. 1851.
##  7 UBMI  2019-08-03 1808. 1850. 1803. 1832.
##  8 UBMI  2019-08-02 1783. 1836. 1769. 1808.
##  9 UBMI  2019-08-01 1751. 1793. 1708. 1783.
## 10 UBMI  2019-07-31 1668. 1752. 1666. 1751.
## # ... with 668 more rows
tail(ubci_index(loi$index[1], from="2018-05-15"))

## # A tibble: 6 x 6
##   index date        open  high   low close
##   <chr> <date>     <dbl> <dbl> <dbl> <dbl>
## 1 UBMI  2018-05-20 2216. 2300. 2198. 2290.
## 2 UBMI  2018-05-19 2231. 2255. 2197. 2215.
## 3 UBMI  2018-05-18 2199. 2232. 2140. 2229.
## 4 UBMI  2018-05-17 2281. 2317. 2177. 2200.
## 5 UBMI  2018-05-16 2319. 2330. 2183. 2281.
## 6 UBMI  2018-05-15 2419. 2439. 2301. 2317.

ubci_index(loi$index[1], to="2018-05-15")

## # A tibble: 227 x 6
##    index date        open  high   low close
##    <chr> <date>     <dbl> <dbl> <dbl> <dbl>
##  1 UBMI  2018-05-15 2419. 2439. 2301. 2317.
##  2 UBMI  2018-05-14 2431. 2456. 2305. 2417.
##  3 UBMI  2018-05-13 2313. 2445. 2274. 2430.
##  4 UBMI  2018-05-12 2206. 2356. 2138. 2313.
##  5 UBMI  2018-05-11 2446. 2465. 2088. 2239.
##  6 UBMI  2018-05-10 2598. 2608. 2431. 2446.
##  7 UBMI  2018-05-09 2549. 2594. 2441. 2583.
##  8 UBMI  2018-05-08 2618. 2644. 2521. 2567.
##  9 UBMI  2018-05-07 2700. 2700. 2538. 2612.
## 10 UBMI  2018-05-06 2699. 2699. 2699. 2699.
## # ... with 217 more rows
…
암호화폐 코드

ubci_get_options() 함수는 취급하는 암호화폐의 종류를 이름과 코드로 제공합니다.

ubci_get_options()

## # A tibble: 519 x 5
##    code            name             exchange tradeStatus marketState
##    <chr>           <chr>            <chr>    <chr>       <chr>      
##  1 UPBIT.KRW-BTC   Bitcoin          UPBIT    ACTIVE      ACTIVE     
##  2 UPBIT.KRW-DASH  Dash             UPBIT    PREVIEW     ACTIVE     
##  3 UPBIT.KRW-ETH   Ethereum         UPBIT    PREVIEW     ACTIVE     
##  4 UPBIT.BTC-NEO   NEO              UPBIT    DELISTED    DELISTED   
##  5 UPBIT.BTC-ETH   Ethereum         UPBIT    ACTIVE      ACTIVE     
##  6 UPBIT.BTC-LTC   Litecoin         UPBIT    ACTIVE      ACTIVE     
##  7 UPBIT.BTC-STRAT Stratis          UPBIT    ACTIVE      ACTIVE     
##  8 UPBIT.BTC-XRP   Ripple           UPBIT    ACTIVE      ACTIVE     
##  9 UPBIT.BTC-ETC   Ethereum Classic UPBIT    ACTIVE      ACTIVE     
## 10 UPBIT.BTC-OMG   OmiseGo          UPBIT    ACTIVE      ACTIVE     
## # ... with 509 more rows

ubci_get_options() 함수 역시 한글 옵션을 제공합니다.

ubci_get_options(lang="ko")

## # A tibble: 519 x 5
##    code            name           exchange tradeStatus marketState
##    <chr>           <chr>          <chr>    <chr>       <chr>      
##  1 UPBIT.KRW-BTC   비트코인       UPBIT    ACTIVE      ACTIVE     
##  2 UPBIT.KRW-DASH  대시           UPBIT    PREVIEW     ACTIVE     
##  3 UPBIT.KRW-ETH   이더리움       UPBIT    PREVIEW     ACTIVE     
##  4 UPBIT.BTC-NEO   네오           UPBIT    DELISTED    DELISTED   
##  5 UPBIT.BTC-ETH   이더리움       UPBIT    ACTIVE      ACTIVE     
##  6 UPBIT.BTC-LTC   라이트코인     UPBIT    ACTIVE      ACTIVE     
##  7 UPBIT.BTC-STRAT 스트라티스     UPBIT    ACTIVE      ACTIVE     
##  8 UPBIT.BTC-XRP   리플           UPBIT    ACTIVE      ACTIVE     
##  9 UPBIT.BTC-ETC   이더리움클래식 UPBIT    ACTIVE      ACTIVE     
## 10 UPBIT.BTC-OMG   오미세고       UPBIT    ACTIVE      ACTIVE     
## # ... with 509 more rows
…
ubci_get() 함수 또한 암호화폐의 일별 시가, 고가, 저가, 종가, 거래량을 제공합니다.

loc<-ubci_get_options()
loc$code[1]

## [1] "UPBIT.KRW-BTC"

ubci_get(loc$code[1])

## Warning: `cols` is now required.
## Please use `cols = c(code, candleDateTime, candleDateTimeKst, openingPrice, highPrice, 
##     lowPrice, tradePrice, candleAccTradeVolume)`

## # A tibble: 400 x 7
##    code          date           open     high      low    close volume
##    <chr>         <date>        <dbl>    <dbl>    <dbl>    <dbl>  <dbl>
##  1 UPBIT.KRW-BTC 2019-08-09 14250000 14310000 13980000 14290000  7141.
##  2 UPBIT.KRW-BTC 2019-08-08 14197000 14310000 13841000 14241000  9232.
##  3 UPBIT.KRW-BTC 2019-08-07 13782000 14408000 13570000 14219000 16557.
##  4 UPBIT.KRW-BTC 2019-08-06 14181000 14570000 13455000 13782000 22453.
##  5 UPBIT.KRW-BTC 2019-08-05 12958000 14213000 12948000 14181000 18720.
##  6 UPBIT.KRW-BTC 2019-08-04 12772000 13036000 12475000 12958000  8485.
##  7 UPBIT.KRW-BTC 2019-08-03 12563000 12883000 12523000 12773000  7492.
##  8 UPBIT.KRW-BTC 2019-08-02 12317000 12768000 12213000 12563000  9548.
##  9 UPBIT.KRW-BTC 2019-08-01 11956000 12412000 11682000 12317000  7300.
## 10 UPBIT.KRW-BTC 2019-07-31 11323000 11960000 11300000 11957000  8043.
## # ... with 390 more rows
…
